c02-michelson-assignment.utf8
…
Its possible that part of the hand calculations for such large numbers involved a small amount of approximation?

The Velocity values in the dataset are the speed of light in air; Michelson introduced a couple of adjustments to estimate the speed of light in a vacuum. In total, he added \(+92\) km/s to his mean estimate for VelocityVacuum (from Michelson (1880), pg. 141). While this isnt fully rigorous (\(+92\) km/s is based on the mean temperature), well simply apply this correction to all the observations in the dataset.

q2 Create a new variable VelocityVacuum with the \(+92\) km/s adjustment to Velocity. Assign this new dataframe to df_q2.

## TODO: Adjust the data, assign to df_q2
df_q2 <- df_michelson %>%
  mutate(
    VelocityVacuum = Velocity + 92,
    error = LIGHTSPEED_VACUUM - VelocityVacuum,
  )
df_q2

## # A tibble: 100 x 6
##    Date                Distinctness  Temp Velocity VelocityVacuum  error
##    <dttm>              <fct>        <dbl>    <dbl>          <dbl>  <dbl>
##  1 1879-06-05 00:00:00 3               76   299850         299942 -150. 
##  2 1879-06-07 00:00:00 2               72   299740         299832  -39.5
##  3 1879-06-07 00:00:00 2               72   299900         299992 -200. 
##  4 1879-06-07 00:00:00 2               72   300070         300162 -370. 
##  5 1879-06-07 00:00:00 2               72   299930         300022 -230. 
##  6 1879-06-07 00:00:00 2               72   299850         299942 -150. 
##  7 1879-06-09 00:00:00 3               83   299950         300042 -250. 
##  8 1879-06-09 00:00:00 3               83   299980         300072 -280. 
##  9 1879-06-09 00:00:00 3               83   299980         300072 -280. 
## 10 1879-06-09 00:00:00 3               83   299880         299972 -180. 
## #  with 90 more rows
…
