…
``` r
summary <- commit_history_parsed %>%
  group_by(name) %>%
  summarise(n = n()) %>%
  arrange(desc(n))
summary
```

    ## # A tibble: 34 x 2
    ##    name                 n
    ##    <chr>            <int>
    ##  1 Eric Schneider    6434
    ##  2 Lael Odhner       4686
    ##  3 Andrew Clough     4503
    ##  4 Jose Gomez        2780
    ##  5 Mark Eichin       2659
    ##  6 Victoria Coleman  2628
    ##  7 Barbara Hendrick  2625
    ##  8 John Sullivan     1707
    ##  9 Matt Browne       1550
    ## 10 Mark Keck         1480
    ## # … with 24 more rows
…
``` r
frequency_history <- commit_history_parsed %>%
  group_by(name, date) %>%
  summarize(commits_in_day = n()) %>%
  ungroup
frequency_history
```

    ## # A tibble: 10,654 x 3
    ##    name        date       commits_in_day
    ##    <chr>       <date>              <int>
    ##  1 Alyssa Gang 2018-03-23              2
    ##  2 Alyssa Gang 2018-03-28              1
    ##  3 Alyssa Gang 2018-04-04              2
    ##  4 Alyssa Gang 2018-04-11              3
    ##  5 Alyssa Gang 2018-04-13              2
    ##  6 Alyssa Gang 2018-04-18              2
    ##  7 Alyssa Gang 2018-04-19              2
    ##  8 Alyssa Gang 2018-04-20              2
    ##  9 Alyssa Gang 2018-04-24              1
    ## 10 Alyssa Gang 2018-04-25              1
    ## # … with 10,644 more rows
…
